﻿{
  "configurations": [
    {
      "name": "Nuke-11.3",
      "generator": "Visual Studio 16 2019 Win64",
      "configurationType": "Release",
      "buildRoot": "${workspaceRoot}\\.build\\${name}",
      "installRoot": "${env.USERPROFILE}\\.nuke\\plugins\\${name}",
      "cmakeCommandArgs": "-T v140",
      "buildCommandArgs": "",
      "ctestCommandArgs": "",
      "inheritEnvironments": [ "msvc_x64" ],
      "variables": [
        {
          "name": "NUKE_INSTALL_PATH",
          "value": "C:/Program Files/Nuke11.3v5",
          "type": "PATH"
        },
        {
          "name": "NUKE_INCLUDE_DIR",
          "value": "C:/Program Files/Nuke11.3v5/include",
          "type": "PATH"
        }
      ]
    },
    {
      "name": "Nuke-12.0",
      "generator": "Visual Studio 16 2019 Win64",
      "configurationType": "Release",
      "buildRoot": "${workspaceRoot}\\.build\\${name}",
      "installRoot": "${env.USERPROFILE}\\.nuke\\plugins\\${name}",
      "cmakeCommandArgs": "-T v140",
      "buildCommandArgs": "",
      "ctestCommandArgs": "",
      "inheritEnvironments": [ "msvc_x64" ],
      "variables": [
        {
          "name": "NUKE_INSTALL_PATH",
          "value": "C:/Program Files/Nuke12.0v1",
          "type": "PATH"
        },
        {
          "name": "NUKE_INCLUDE_DIR",
          "value": "C:/Program Files/Nuke12.0v1/include",
          "type": "PATH"
        }
      ]
    }
  ]
}
